+1.000000e+002	   +1.417444e-003
+1.017419e+002	   +1.359926e-003
+1.035142e+002	   +1.169396e-003
+1.053174e+002	   +1.247767e-003
+1.071519e+002	   +1.369158e-003
+1.090184e+002	   +1.380380e-003
+1.109175e+002	   +1.220906e-003
+1.128496e+002	   +1.239779e-003
+1.148154e+002	   +1.285685e-003
+1.168154e+002	   +1.153373e-003
+1.188502e+002	   +1.177734e-003
+1.209205e+002	   +1.229221e-003
+1.230269e+002	   +1.215778e-003
+1.251699e+002	   +1.201600e-003
+1.273503e+002	   +1.277252e-003
+1.295687e+002	   +1.306294e-003
+1.318257e+002	   +1.226580e-003
+1.341220e+002	   +1.262009e-003
+1.364583e+002	   +1.323407e-003
+1.388353e+002	   +1.387095e-003
+1.412538e+002	   +1.302803e-003
+1.437143e+002	   +1.327525e-003
+1.462177e+002	   +1.368378e-003
+1.487647e+002	   +1.506958e-003
+1.513561e+002	   +1.398814e-003
+1.539926e+002	   +1.403431e-003
+1.566751e+002	   +1.336914e-003
+1.594043e+002	   +1.156513e-003
+1.621810e+002	   +1.184793e-003
+1.650061e+002	   +1.153858e-003
+1.678804e+002	   +1.216619e-003
+1.708048e+002	   +1.282068e-003
+1.737801e+002	   +1.034245e-003
+1.768072e+002	   +8.956309e-004
+1.798871e+002	   +9.458315e-004
+1.830206e+002	   +1.149129e-003
+1.862087e+002	   +1.157430e-003
+1.894523e+002	   +1.171058e-003
+1.927525e+002	   +1.373630e-003
+1.961101e+002	   +1.414298e-003
+1.995262e+002	   +1.412403e-003
+2.030018e+002	   +1.432274e-003
+2.065380e+002	   +1.263203e-003
+2.101358e+002	   +1.180189e-003
+2.137962e+002	   +1.175499e-003
+2.175204e+002	   +1.297073e-003
+2.213095e+002	   +1.473812e-003
+2.251645e+002	   +1.415546e-003
+2.290868e+002	   +1.448998e-003
+2.330773e+002	   +1.369786e-003
+2.371374e+002	   +1.352163e-003
+2.412682e+002	   +1.338767e-003
+2.454709e+002	   +1.202750e-003
+2.497468e+002	   +1.314351e-003
+2.540973e+002	   +1.358103e-003
+2.585235e+002	   +1.375738e-003
+2.630268e+002	   +1.161038e-003
+2.676086e+002	   +1.230710e-003
+2.722701e+002	   +1.203078e-003
+2.770129e+002	   +1.201334e-003
+2.818383e+002	   +1.085045e-003
+2.867477e+002	   +1.144489e-003
+2.917427e+002	   +1.195946e-003
+2.968247e+002	   +1.149367e-003
+3.019952e+002	   +1.118413e-003
+3.072557e+002	   +1.194297e-003
+3.126079e+002	   +1.131410e-003
+3.180534e+002	   +1.234982e-003
+3.235937e+002	   +1.225414e-003
+3.292304e+002	   +1.237615e-003
+3.349655e+002	   +1.123608e-003
+3.408003e+002	   +1.109321e-003
+3.467368e+002	   +1.110471e-003
+3.527768e+002	   +1.085558e-003
+3.589219e+002	   +1.192856e-003
+3.651741e+002	   +1.206299e-003
+3.715352e+002	   +1.173382e-003
+3.780071e+002	   +1.172625e-003
+3.845918e+002	   +1.078765e-003
+3.912911e+002	   +1.076371e-003
+3.981072e+002	   +1.064725e-003
+4.050419e+002	   +1.022310e-003
+4.120975e+002	   +9.922192e-004
+4.192760e+002	   +1.058184e-003
+4.265795e+002	   +1.005945e-003
+4.340103e+002	   +1.091664e-003
+4.415704e+002	   +1.096007e-003
+4.492623e+002	   +1.107073e-003
+4.570882e+002	   +1.069550e-003
+4.650504e+002	   +1.309778e-003
+4.731512e+002	   +1.310303e-003
+4.813932e+002	   +1.355339e-003
+4.897788e+002	   +1.384280e-003
+4.983105e+002	   +1.291205e-003
+5.069907e+002	   +1.216969e-003
+5.158221e+002	   +1.196929e-003
+5.248074e+002	   +9.744474e-004
+5.339493e+002	   +1.239039e-003
+5.432503e+002	   +1.376270e-003
+5.527134e+002	   +1.176803e-003
+5.623413e+002	   +1.108528e-003
+5.721370e+002	   +9.199210e-004
+5.821032e+002	   +9.993010e-004
+5.922431e+002	   +1.167733e-003
+6.025596e+002	   +1.288738e-003
+6.130558e+002	   +1.290947e-003
+6.237349e+002	   +1.223880e-003
+6.345999e+002	   +1.208878e-003
+6.456542e+002	   +1.121674e-003
+6.569011e+002	   +1.079477e-003
+6.683439e+002	   +1.148663e-003
+6.799860e+002	   +1.170428e-003
+6.918310e+002	   +1.171333e-003
+7.038822e+002	   +1.133737e-003
+7.161434e+002	   +1.203249e-003
+7.286182e+002	   +1.130496e-003
+7.413102e+002	   +1.229039e-003
+7.542234e+002	   +9.287887e-004
+7.673615e+002	   +1.229112e-003
+7.807285e+002	   +1.104934e-003
+7.943282e+002	   +9.704411e-004
+8.081649e+002	   +9.123149e-004
+8.222427e+002	   +1.019952e-003
+8.365656e+002	   +1.122677e-003
+8.511381e+002	   +8.461397e-004
+8.659643e+002	   +1.148891e-003
+8.810489e+002	   +1.125621e-003
+8.963962e+002	   +1.094246e-003
+9.120109e+002	   +9.155194e-004
+9.278975e+002	   +1.080150e-003
+9.440609e+002	   +8.183845e-004
+9.605058e+002	   +8.413821e-004
+9.772372e+002	   +1.105500e-003
+9.942601e+002	   +1.166194e-003
+1.011579e+003	   +1.265084e-003
+1.029201e+003	   +1.019960e-003
+1.047129e+003	   +1.011735e-003
+1.065369e+003	   +1.028570e-003
+1.083927e+003	   +7.330665e-004
+1.102808e+003	   +9.339864e-004
+1.122018e+003	   +9.837692e-004
+1.141563e+003	   +7.073102e-004
+1.161449e+003	   +8.431848e-004
+1.181680e+003	   +7.791739e-004
+1.202264e+003	   +4.146578e-004
+1.223207e+003	   +4.475183e-004
+1.244515e+003	   +4.350873e-004
+1.266193e+003	   +2.268108e-004
+1.288250e+003	   +2.382465e-004
+1.310690e+003	   +4.411794e-004
+1.333521e+003	   +3.975140e-004
+1.356750e+003	   +5.560861e-004
+1.380384e+003	   +5.713459e-004
+1.404430e+003	   +5.186362e-004
+1.428894e+003	   +4.430186e-004
+1.453784e+003	   +2.825736e-004
+1.479108e+003	   +3.555363e-004
+1.504874e+003	   +2.734004e-004
+1.531087e+003	   +3.432090e-004
+1.557758e+003	   +1.595758e-004
+1.584893e+003	   +1.004880e-004
+1.612501e+003	   +1.994088e-004
+1.640590e+003	   +1.115649e-004
+1.669168e+003	   -4.133569e-005
+1.698244e+003	   +1.237632e-004
+1.727826e+003	   -2.104044e-004
+1.757924e+003	   -9.692468e-005
+1.788546e+003	   +1.820912e-005
+1.819701e+003	   -2.547763e-004
+1.851399e+003	   -1.025206e-004
+1.883649e+003	   -4.932023e-004
+1.916461e+003	   -2.180217e-004
+1.949845e+003	   -2.838605e-004
+1.983810e+003	   +3.320060e-004
+2.018366e+003	   -3.390962e-004
+2.053525e+003	   +1.744768e-004
+2.089296e+003	   -9.677889e-005
+2.125690e+003	   -6.295759e-004
+2.162719e+003	   -3.761985e-004
+2.200392e+003	   -5.439608e-004
+2.238721e+003	   -6.657614e-004
+2.277718e+003	   -4.837963e-004
+2.317395e+003	   -9.188585e-004
+2.357762e+003	   -7.896760e-004
+2.398833e+003	   -8.326630e-004
+2.440619e+003	   -1.222442e-003
+2.483133e+003	   -7.116697e-004
+2.526388e+003	   -1.210574e-003
+2.570396e+003	   -6.458225e-004
+2.615170e+003	   -1.331593e-003
+2.660725e+003	   -1.269959e-003
+2.707073e+003	   -1.593039e-003
+2.754229e+003	   -1.301757e-003
+2.802206e+003	   -1.533107e-003
+2.851018e+003	   -1.607393e-003
+2.900681e+003	   -1.430466e-003
+2.951209e+003	   -1.555693e-003
+3.002617e+003	   -1.810447e-003
+3.054921e+003	   -1.794152e-003
+3.108136e+003	   -2.148480e-003
+3.162278e+003	   -2.177326e-003
+3.217363e+003	   -1.888574e-003
+3.273407e+003	   -2.529372e-003
+3.330428e+003	   -2.436804e-003
+3.388442e+003	   -2.148985e-003
+3.447466e+003	   -2.406447e-003
+3.507519e+003	   -2.585452e-003
+3.568617e+003	   -2.929998e-003
+3.630781e+003	   -2.740320e-003
+3.694026e+003	   -3.069041e-003
+3.758374e+003	   -3.194690e-003
+3.823843e+003	   -3.721056e-003
+3.890451e+003	   -3.559501e-003
+3.958221e+003	   -3.821115e-003
+4.027170e+003	   -3.473844e-003
+4.097321e+003	   -4.554294e-003
+4.168694e+003	   -4.778279e-003
+4.241310e+003	   -4.618817e-003
+4.315191e+003	   -4.441680e-003
+4.390359e+003	   -5.405065e-003
+4.466836e+003	   -5.227712e-003
+4.544646e+003	   -5.921800e-003
+4.623810e+003	   -5.862096e-003
+4.704354e+003	   -5.853076e-003
+4.786301e+003	   -7.698966e-003
+4.869675e+003	   -6.816879e-003
+4.954502e+003	   -7.018334e-003
+5.040806e+003	   -6.622943e-003
+5.128614e+003	   -7.823326e-003
+5.217951e+003	   -7.830596e-003
+5.308844e+003	   -7.747440e-003
+5.401321e+003	   -7.759403e-003
+5.495409e+003	   -8.299286e-003
+5.591135e+003	   -8.214111e-003
+5.688529e+003	   -1.242487e-002
+5.787620e+003	   -1.188255e-002
+5.888437e+003	   -1.197622e-002
+5.991009e+003	   -1.172349e-002
+6.095369e+003	   -1.005931e-002
+6.201546e+003	   -1.109278e-002
+6.309573e+003	   -1.144713e-002
+6.419482e+003	   -1.265103e-002
+6.531306e+003	   -1.343837e-002
+6.645077e+003	   -1.267509e-002
+6.760830e+003	   -1.482248e-002
+6.878599e+003	   -1.475725e-002
+6.998420e+003	   -1.555158e-002
+7.120328e+003	   -1.594784e-002
+7.244359e+003	   -1.624423e-002
+7.370552e+003	   -1.662850e-002
+7.498942e+003	   -1.750528e-002
+7.629569e+003	   -1.838068e-002
+7.762471e+003	   -2.006662e-002
+7.897688e+003	   -1.965873e-002
+8.035261e+003	   -2.229375e-002
+8.175230e+003	   -2.237649e-002
+8.317638e+003	   -2.284825e-002
+8.462525e+003	   -2.249411e-002
+8.609938e+003	   -2.542954e-002
+8.759917e+003	   -2.500509e-002
+8.912510e+003	   -2.579145e-002
+9.067760e+003	   -2.719378e-002
+9.225714e+003	   -2.957977e-002
+9.386420e+003	   -2.857961e-002
+9.549926e+003	   -3.071688e-002
+9.716279e+003	   -3.000834e-002
+9.885531e+003	   -3.203335e-002
+1.005773e+004	   -3.383766e-002
+1.023293e+004	   -3.630743e-002
+1.041118e+004	   -3.776249e-002
+1.059254e+004	   -3.833291e-002
+1.077705e+004	   -3.972774e-002
+1.096478e+004	   -4.073115e-002
+1.115578e+004	   -4.284183e-002
+1.135011e+004	   -4.398857e-002
+1.154782e+004	   -4.704110e-002
+1.174898e+004	   -4.736143e-002
+1.195364e+004	   -4.740208e-002
+1.216186e+004	   -5.039416e-002
+1.237371e+004	   -5.381067e-002
+1.258925e+004	   -5.429631e-002
+1.280855e+004	   -5.586037e-002
+1.303167e+004	   -5.865718e-002
+1.325867e+004	   -5.740294e-002
+1.348963e+004	   -6.205127e-002
+1.372461e+004	   -6.661344e-002
+1.396368e+004	   -6.704281e-002
+1.420692e+004	   -7.104073e-002
+1.445440e+004	   -7.383172e-002
+1.470618e+004	   -7.631428e-002
+1.496236e+004	   -7.793380e-002
+1.522299e+004	   -8.097216e-002
+1.548817e+004	   -8.800781e-002
+1.575796e+004	   -8.625258e-002
+1.603245e+004	   -9.212505e-002
+1.631173e+004	   -9.414484e-002
+1.659587e+004	   -9.812730e-002
+1.688496e+004	   -1.034389e-001
+1.717908e+004	   -1.059538e-001
+1.747833e+004	   -1.068917e-001
+1.778279e+004	   -1.142026e-001
+1.809256e+004	   -1.202942e-001
+1.840772e+004	   -1.228528e-001
+1.872837e+004	   -1.247688e-001
+1.905461e+004	   -1.326232e-001
+1.938653e+004	   -1.374216e-001
+1.972423e+004	   -1.423504e-001
+2.006781e+004	   -1.452772e-001
+2.041738e+004	   -1.545837e-001
+2.077304e+004	   -1.600726e-001
+2.113489e+004	   -1.624659e-001
+2.150305e+004	   -1.694448e-001
+2.187762e+004	   -1.754877e-001
+2.225871e+004	   -1.776370e-001
+2.264644e+004	   -1.891114e-001
+2.304093e+004	   -1.950774e-001
+2.344229e+004	   -2.008713e-001
+2.385064e+004	   -2.090760e-001
+2.426610e+004	   -2.172925e-001
+2.468880e+004	   -2.263517e-001
+2.511887e+004	   -2.351559e-001
+2.555642e+004	   -2.428707e-001
+2.600160e+004	   -2.523077e-001
+2.645453e+004	   -2.569789e-001
+2.691535e+004	   -2.712362e-001
+2.738420e+004	   -2.789984e-001
+2.786121e+004	   -2.911887e-001
+2.834654e+004	   -2.990783e-001
+2.884031e+004	   -3.152607e-001
+2.934270e+004	   -3.220651e-001
+2.985383e+004	   -3.364671e-001
+3.037386e+004	   -3.476947e-001
+3.090296e+004	   -3.612675e-001
+3.144126e+004	   -3.709812e-001
+3.198895e+004	   -3.871424e-001
+3.254618e+004	   -3.976083e-001
+3.311311e+004	   -4.177898e-001
+3.368992e+004	   -4.313102e-001
+3.427678e+004	   -4.497068e-001
+3.487386e+004	   -4.614746e-001
+3.548134e+004	   -4.806620e-001
+3.609940e+004	   -4.974512e-001
+3.672823e+004	   -5.122398e-001
+3.736801e+004	   -5.327492e-001
+3.801894e+004	   -5.553840e-001
+3.868121e+004	   -5.741829e-001
+3.935501e+004	   -5.935631e-001
+4.004055e+004	   -6.234926e-001
+4.073803e+004	   -6.399904e-001
+4.144766e+004	   -6.619959e-001
+4.216965e+004	   -6.815393e-001
+4.290422e+004	   -7.077509e-001
+4.365158e+004	   -7.341364e-001
+4.441196e+004	   -7.677648e-001
+4.518559e+004	   -7.850656e-001
+4.597270e+004	   -8.247806e-001
+4.677352e+004	   -8.507046e-001
+4.758828e+004	   -8.795408e-001
+4.841724e+004	   -9.110926e-001
+4.926063e+004	   -9.503583e-001
+5.011872e+004	   -9.762924e-001
+5.099176e+004	   -1.016798e+000
+5.188000e+004	   -1.046390e+000
+5.278372e+004	   -1.087466e+000
+5.370318e+004	   -1.127996e+000
+5.463866e+004	   -1.159754e+000
+5.559043e+004	   -1.206479e+000
+5.655878e+004	   -1.250863e+000
+5.754399e+004	   -1.291015e+000
+5.854638e+004	   -1.343836e+000
+5.956621e+004	   -1.388603e+000
+6.060382e+004	   -1.443261e+000
+6.165950e+004	   -1.486891e+000
+6.273357e+004	   -1.546959e+000
+6.382635e+004	   -1.606734e+000
+6.493816e+004	   -1.670168e+000
+6.606934e+004	   -1.730279e+000
+6.722023e+004	   -1.800252e+000
+6.839116e+004	   -1.848496e+000
+6.958249e+004	   -1.921968e+000
+7.079458e+004	   -1.991643e+000
+7.202777e+004	   -2.074472e+000
+7.328245e+004	   -2.136159e+000
+7.455898e+004	   -2.230921e+000
+7.585776e+004	   -2.315635e+000
+7.717915e+004	   -2.386797e+000
+7.852356e+004	   -2.478227e+000
+7.989139e+004	   -2.577592e+000
+8.128305e+004	   -2.672525e+000
+8.269895e+004	   -2.779805e+000
+8.413952e+004	   -2.875358e+000
+8.560517e+004	   -2.982436e+000
+8.709636e+004	   -3.094160e+000
+8.861352e+004	   -3.201864e+000
+9.015712e+004	   -3.325570e+000
+9.172759e+004	   -3.433300e+000
+9.332543e+004	   -3.579741e+000
+9.495110e+004	   -3.682792e+000
+9.660509e+004	   -3.802565e+000
+9.828789e+004	   -4.002982e+000
+1.000000e+005	   +4.145949e-001
