+1.000000e+002	   +2.472790e-003
+1.017419e+002	   +2.414308e-003
+1.035142e+002	   +2.398631e-003
+1.053174e+002	   +2.442131e-003
+1.071519e+002	   +2.507482e-003
+1.090184e+002	   +2.576121e-003
+1.109175e+002	   +2.579920e-003
+1.128496e+002	   +2.658583e-003
+1.148154e+002	   +2.538271e-003
+1.168154e+002	   +2.600479e-003
+1.188502e+002	   +2.415090e-003
+1.209205e+002	   +2.504802e-003
+1.230269e+002	   +2.502553e-003
+1.251699e+002	   +2.504992e-003
+1.273503e+002	   +2.405040e-003
+1.295687e+002	   +2.508244e-003
+1.318257e+002	   +2.513002e-003
+1.341220e+002	   +2.525797e-003
+1.364583e+002	   +2.559491e-003
+1.388353e+002	   +2.663710e-003
+1.412538e+002	   +2.638243e-003
+1.437143e+002	   +2.687448e-003
+1.462177e+002	   +2.573085e-003
+1.487647e+002	   +2.537861e-003
+1.513561e+002	   +2.554057e-003
+1.539926e+002	   +2.417737e-003
+1.566751e+002	   +2.541153e-003
+1.594043e+002	   +2.479769e-003
+1.621810e+002	   +2.502567e-003
+1.650061e+002	   +2.497109e-003
+1.678804e+002	   +2.463808e-003
+1.708048e+002	   +2.550062e-003
+1.737801e+002	   +2.461781e-003
+1.768072e+002	   +2.600296e-003
+1.798871e+002	   +2.472709e-003
+1.830206e+002	   +2.423636e-003
+1.862087e+002	   +2.534124e-003
+1.894523e+002	   +2.649121e-003
+1.927525e+002	   +2.509730e-003
+1.961101e+002	   +2.428393e-003
+1.995262e+002	   +2.468947e-003
+2.030018e+002	   +2.666116e-003
+2.065380e+002	   +2.514617e-003
+2.101358e+002	   +2.418550e-003
+2.137962e+002	   +2.495827e-003
+2.175204e+002	   +2.530011e-003
+2.213095e+002	   +2.557464e-003
+2.251645e+002	   +2.452420e-003
+2.290868e+002	   +2.435826e-003
+2.330773e+002	   +2.399452e-003
+2.371374e+002	   +2.298653e-003
+2.412682e+002	   +2.363098e-003
+2.454709e+002	   +2.448167e-003
+2.497468e+002	   +2.319321e-003
+2.540973e+002	   +2.307293e-003
+2.585235e+002	   +2.390074e-003
+2.630268e+002	   +2.338937e-003
+2.676086e+002	   +2.434634e-003
+2.722701e+002	   +2.425194e-003
+2.770129e+002	   +2.375042e-003
+2.818383e+002	   +2.471422e-003
+2.867477e+002	   +2.322102e-003
+2.917427e+002	   +2.297433e-003
+2.968247e+002	   +2.275327e-003
+3.019952e+002	   +2.306046e-003
+3.072557e+002	   +2.329083e-003
+3.126079e+002	   +2.245195e-003
+3.180534e+002	   +2.278535e-003
+3.235937e+002	   +2.286645e-003
+3.292304e+002	   +2.357029e-003
+3.349655e+002	   +2.372832e-003
+3.408003e+002	   +2.262299e-003
+3.467368e+002	   +1.633688e-003
+3.527768e+002	   +2.198288e-003
+3.589219e+002	   +2.204358e-003
+3.651741e+002	   +2.408687e-003
+3.715352e+002	   +2.363780e-003
+3.780071e+002	   +2.480158e-003
+3.845918e+002	   +2.237075e-003
+3.912911e+002	   +2.507140e-003
+3.981072e+002	   +2.226798e-003
+4.050419e+002	   +2.363558e-003
+4.120975e+002	   +2.493203e-003
+4.192760e+002	   +2.455467e-003
+4.265795e+002	   +2.338525e-003
+4.340103e+002	   +2.535313e-003
+4.415704e+002	   +2.586270e-003
+4.492623e+002	   +2.443479e-003
+4.570882e+002	   +2.526451e-003
+4.650504e+002	   +2.541837e-003
+4.731512e+002	   +2.412792e-003
+4.813932e+002	   +2.333964e-003
+4.897788e+002	   +2.424830e-003
+4.983105e+002	   +2.418640e-003
+5.069907e+002	   +2.421673e-003
+5.158221e+002	   +2.520751e-003
+5.248074e+002	   +2.560920e-003
+5.339493e+002	   +2.462647e-003
+5.432503e+002	   +2.666278e-003
+5.527134e+002	   +2.680916e-003
+5.623413e+002	   +2.519080e-003
+5.721370e+002	   +2.364209e-003
+5.821032e+002	   +2.269880e-003
+5.922431e+002	   +2.327852e-003
+6.025596e+002	   +2.428906e-003
+6.130558e+002	   +2.372594e-003
+6.237349e+002	   +2.368327e-003
+6.345999e+002	   +2.462305e-003
+6.456542e+002	   +2.657018e-003
+6.569011e+002	   +2.593784e-003
+6.683439e+002	   +2.485395e-003
+6.799860e+002	   +2.440852e-003
+6.918310e+002	   +2.539801e-003
+7.038822e+002	   +2.427476e-003
+7.161434e+002	   +2.557052e-003
+7.286182e+002	   +2.405059e-003
+7.413102e+002	   +2.407728e-003
+7.542234e+002	   +2.513448e-003
+7.673615e+002	   +2.237084e-003
+7.807285e+002	   +2.241786e-003
+7.943282e+002	   +2.382620e-003
+8.081649e+002	   +2.313018e-003
+8.222427e+002	   +2.360244e-003
+8.365656e+002	   +2.200422e-003
+8.511381e+002	   +2.394812e-003
+8.659643e+002	   +2.195406e-003
+8.810489e+002	   +1.628821e-003
+8.963962e+002	   +2.206051e-003
+9.120109e+002	   +2.340978e-003
+9.278975e+002	   +2.306531e-003
+9.440609e+002	   +2.196320e-003
+9.605058e+002	   +2.265991e-003
+9.772372e+002	   +2.276917e-003
+9.942601e+002	   +2.399575e-003
+1.011579e+003	   +2.410355e-003
+1.029201e+003	   +2.459401e-003
+1.047129e+003	   +2.342809e-003
+1.065369e+003	   +2.507061e-003
+1.083927e+003	   +2.569676e-003
+1.102808e+003	   +2.513058e-003
+1.122018e+003	   +2.317201e-003
+1.141563e+003	   +2.533580e-003
+1.161449e+003	   +2.441099e-003
+1.181680e+003	   +2.408597e-003
+1.202264e+003	   +2.408045e-003
+1.223207e+003	   +1.582296e-003
+1.244515e+003	   +1.513533e-003
+1.266193e+003	   +1.646298e-003
+1.288250e+003	   +2.256577e-003
+1.310690e+003	   +2.259311e-003
+1.333521e+003	   +2.305592e-003
+1.356750e+003	   +1.491376e-003
+1.380384e+003	   +2.271172e-003
+1.404430e+003	   +1.508795e-003
+1.428894e+003	   +2.226798e-003
+1.453784e+003	   +2.346238e-003
+1.479108e+003	   +2.325993e-003
+1.504874e+003	   +2.199777e-003
+1.531087e+003	   +2.363976e-003
+1.557758e+003	   +2.398311e-003
+1.584893e+003	   +1.500990e-003
+1.612501e+003	   +2.404005e-003
+1.640590e+003	   +1.598638e-003
+1.669168e+003	   +1.558864e-003
+1.698244e+003	   +1.420424e-003
+1.727826e+003	   +2.193374e-003
+1.757924e+003	   +1.469315e-003
+1.788546e+003	   +1.627164e-003
+1.819701e+003	   +1.427262e-003
+1.851399e+003	   +1.298444e-003
+1.883649e+003	   +1.636247e-003
+1.916461e+003	   +2.317840e-003
+1.949845e+003	   +2.359995e-003
+1.983810e+003	   +1.534988e-003
+2.018366e+003	   +1.440691e-003
+2.053525e+003	   +1.274580e-003
+2.089296e+003	   +1.333527e-003
+2.125690e+003	   +2.195336e-003
+2.162719e+003	   +1.420166e-003
+2.200392e+003	   +1.329616e-003
+2.238721e+003	   +1.281816e-003
+2.277718e+003	   +1.526028e-003
+2.317395e+003	   +1.279281e-003
+2.357762e+003	   +1.169101e-003
+2.398833e+003	   +1.155176e-003
+2.440619e+003	   +2.216500e-003
+2.483133e+003	   +2.279151e-003
+2.526388e+003	   +2.187153e-003
+2.570396e+003	   +1.370711e-003
+2.615170e+003	   +2.323044e-003
+2.660725e+003	   +1.390728e-003
+2.707073e+003	   +1.333715e-003
+2.754229e+003	   +2.190839e-003
+2.802206e+003	   +1.444893e-003
+2.851018e+003	   +1.557411e-003
+2.900681e+003	   +1.451919e-003
+2.951209e+003	   +1.135694e-003
+3.002617e+003	   +8.926059e-004
+3.054921e+003	   +1.311688e-003
+3.108136e+003	   +1.590171e-003
+3.162278e+003	   +1.276943e-003
+3.217363e+003	   +2.481400e-003
+3.273407e+003	   +1.606103e-003
+3.330428e+003	   +1.629917e-003
+3.388442e+003	   +1.486021e-003
+3.447466e+003	   +1.298060e-003
+3.507519e+003	   +1.065471e-003
+3.568617e+003	   +1.543957e-003
+3.630781e+003	   +1.341932e-003
+3.694026e+003	   +1.149283e-003
+3.758374e+003	   +1.293994e-003
+3.823843e+003	   +1.595402e-003
+3.890451e+003	   +1.515523e-003
+3.958221e+003	   +1.422967e-003
+4.027170e+003	   +7.237418e-004
+4.097321e+003	   +1.540186e-003
+4.168694e+003	   +1.176595e-003
+4.241310e+003	   +1.218060e-003
+4.315191e+003	   +1.330315e-003
+4.390359e+003	   +1.013324e-003
+4.466836e+003	   +1.485060e-003
+4.544646e+003	   +8.091411e-004
+4.623810e+003	   +1.155112e-003
+4.704354e+003	   +7.329852e-004
+4.786301e+003	   +9.156035e-004
+4.869675e+003	   +9.167922e-004
+4.954502e+003	   +1.120684e-003
+5.040806e+003	   +9.534460e-004
+5.128614e+003	   +7.113725e-004
+5.217951e+003	   +1.061119e-003
+5.308844e+003	   +1.119268e-003
+5.401321e+003	   +1.038195e-003
+5.495409e+003	   +5.400077e-004
+5.591135e+003	   +6.723946e-004
+5.688529e+003	   -8.909967e-004
+5.787620e+003	   -1.321985e-003
+5.888437e+003	   +1.238809e-004
+5.991009e+003	   +4.258608e-004
+6.095369e+003	   +9.922360e-005
+6.201546e+003	   +7.204729e-004
+6.309573e+003	   +2.826073e-004
+6.419482e+003	   +8.699447e-005
+6.531306e+003	   +3.447538e-005
+6.645077e+003	   +2.004742e-004
+6.760830e+003	   -2.351542e-004
+6.878599e+003	   -2.139088e-004
+6.998420e+003	   -5.216332e-004
+7.120328e+003	   +5.920278e-005
+7.244359e+003	   -1.029523e-004
+7.370552e+003	   -4.601596e-004
+7.498942e+003	   -4.299876e-004
+7.629569e+003	   -7.523971e-004
+7.762471e+003	   -1.124474e-003
+7.897688e+003	   -3.349133e-005
+8.035261e+003	   -2.125609e-003
+8.175230e+003	   -9.628127e-004
+8.317638e+003	   -1.728361e-003
+8.462525e+003	   -1.800169e-003
+8.609938e+003	   -2.204776e-003
+8.759917e+003	   -2.318379e-003
+8.912510e+003	   -1.774741e-003
+9.067760e+003	   -1.542482e-003
+9.225714e+003	   -2.455781e-003
+9.386420e+003	   -2.272849e-003
+9.549926e+003	   -2.613689e-003
+9.716279e+003	   -3.530167e-003
+9.885531e+003	   -2.508578e-003
+1.005773e+004	   -2.508028e-003
+1.023293e+004	   -4.037303e-003
+1.041118e+004	   -3.921079e-003
+1.059254e+004	   -3.239365e-003
+1.077705e+004	   -3.930617e-003
+1.096478e+004	   -2.842942e-003
+1.115578e+004	   -3.376967e-003
+1.135011e+004	   -3.844696e-003
+1.154782e+004	   -4.165860e-003
+1.174898e+004	   -4.666660e-003
+1.195364e+004	   -5.132811e-003
+1.216186e+004	   -6.088519e-003
+1.237371e+004	   -5.345722e-003
+1.258925e+004	   -6.310797e-003
+1.280855e+004	   -5.966251e-003
+1.303167e+004	   -6.412975e-003
+1.325867e+004	   -6.399841e-003
+1.348963e+004	   -6.679050e-003
+1.372461e+004	   -6.601986e-003
+1.396368e+004	   -9.445073e-003
+1.420692e+004	   -8.910541e-003
+1.445440e+004	   -8.191941e-003
+1.470618e+004	   -9.228896e-003
+1.496236e+004	   -8.837427e-003
+1.522299e+004	   -8.746982e-003
+1.548817e+004	   -1.159135e-002
+1.575796e+004	   -1.045259e-002
+1.603245e+004	   -1.214636e-002
+1.631173e+004	   -1.140842e-002
+1.659587e+004	   -1.305071e-002
+1.688496e+004	   -1.253767e-002
+1.717908e+004	   -1.356511e-002
+1.747833e+004	   -1.635520e-002
+1.778279e+004	   -1.666861e-002
+1.809256e+004	   -1.511650e-002
+1.840772e+004	   -1.597384e-002
+1.872837e+004	   -1.947436e-002
+1.905461e+004	   -1.817572e-002
+1.938653e+004	   -2.131300e-002
+1.972423e+004	   -2.207861e-002
+2.006781e+004	   -2.165163e-002
+2.041738e+004	   -2.337874e-002
+2.077304e+004	   -2.575436e-002
+2.113489e+004	   -2.219319e-002
+2.150305e+004	   -2.471752e-002
+2.187762e+004	   -2.704536e-002
+2.225871e+004	   -2.763215e-002
+2.264644e+004	   -2.878339e-002
+2.304093e+004	   -3.083196e-002
+2.344229e+004	   -3.284552e-002
+2.385064e+004	   -3.569751e-002
+2.426610e+004	   -3.712028e-002
+2.468880e+004	   -3.775065e-002
+2.511887e+004	   -4.181200e-002
+2.555642e+004	   -4.289107e-002
+2.600160e+004	   -4.252748e-002
+2.645453e+004	   -4.299070e-002
+2.691535e+004	   -4.710215e-002
+2.738420e+004	   -5.208598e-002
+2.786121e+004	   -4.873201e-002
+2.834654e+004	   -5.661408e-002
+2.884031e+004	   -5.455771e-002
+2.934270e+004	   -5.787636e-002
+2.985383e+004	   -6.265643e-002
+3.037386e+004	   -6.547131e-002
+3.090296e+004	   -6.785451e-002
+3.144126e+004	   -7.073580e-002
+3.198895e+004	   -7.435365e-002
+3.254618e+004	   -8.027658e-002
+3.311311e+004	   -8.177761e-002
+3.368992e+004	   -8.432487e-002
+3.427678e+004	   -8.932797e-002
+3.487386e+004	   -9.284315e-002
+3.548134e+004	   -9.625215e-002
+3.609940e+004	   -1.043629e-001
+3.672823e+004	   -1.053938e-001
+3.736801e+004	   -1.092507e-001
+3.801894e+004	   -1.125038e-001
+3.868121e+004	   -1.201705e-001
+3.935501e+004	   -1.262754e-001
+4.004055e+004	   -1.288033e-001
+4.073803e+004	   -1.328062e-001
+4.144766e+004	   -1.390860e-001
+4.216965e+004	   -1.426989e-001
+4.290422e+004	   -1.522269e-001
+4.365158e+004	   -1.564559e-001
+4.441196e+004	   -1.632065e-001
+4.518559e+004	   -1.694988e-001
+4.597270e+004	   -1.757038e-001
+4.677352e+004	   -1.790470e-001
+4.758828e+004	   -1.893378e-001
+4.841724e+004	   -1.910619e-001
+4.926063e+004	   -1.998542e-001
+5.011872e+004	   -2.106939e-001
+5.099176e+004	   -2.148329e-001
+5.188000e+004	   -2.211791e-001
+5.278372e+004	   -2.277728e-001
+5.370318e+004	   -2.403571e-001
+5.463866e+004	   -2.501051e-001
+5.559043e+004	   -2.537461e-001
+5.655878e+004	   -2.627324e-001
+5.754399e+004	   -2.732883e-001
+5.854638e+004	   -2.830692e-001
+5.956621e+004	   -2.946405e-001
+6.060382e+004	   -3.021071e-001
+6.165950e+004	   -3.125574e-001
+6.273357e+004	   -3.269289e-001
+6.382635e+004	   -3.376045e-001
+6.493816e+004	   -3.413577e-001
+6.606934e+004	   -3.565093e-001
+6.722023e+004	   -3.688194e-001
+6.839116e+004	   -3.881481e-001
+6.958249e+004	   -3.992387e-001
+7.079458e+004	   -4.090588e-001
+7.202777e+004	   -4.306117e-001
+7.328245e+004	   -4.451666e-001
+7.455898e+004	   -4.566508e-001
+7.585776e+004	   -4.769663e-001
+7.717915e+004	   -5.018100e-001
+7.852356e+004	   -5.228176e-001
+7.989139e+004	   -5.326793e-001
+8.128305e+004	   -5.495915e-001
+8.269895e+004	   -5.778961e-001
+8.413952e+004	   -6.005246e-001
+8.560517e+004	   -6.138049e-001
+8.709636e+004	   -6.241891e-001
+8.861352e+004	   -6.511112e-001
+9.015712e+004	   -6.692131e-001
+9.172759e+004	   -6.946657e-001
+9.332543e+004	   -6.970008e-001
+9.495110e+004	   -7.081649e-001
+9.660509e+004	   -7.255304e-001
+9.828789e+004	   -7.430980e-001
+1.000000e+005	   -7.738258e-001
