+1.000000e+002	   +1.032947e-003
+1.017419e+002	   +9.258281e-004
+1.035142e+002	   +1.220227e-003
+1.053174e+002	   +1.215405e-003
+1.071519e+002	   +1.013476e-003
+1.090184e+002	   +1.224163e-003
+1.109175e+002	   +1.114281e-003
+1.128496e+002	   +1.124191e-003
+1.148154e+002	   +9.007334e-004
+1.168154e+002	   +8.078010e-004
+1.188502e+002	   +8.797375e-004
+1.209205e+002	   +1.039358e-003
+1.230269e+002	   +1.030451e-003
+1.251699e+002	   +1.017821e-003
+1.273503e+002	   +1.060494e-003
+1.295687e+002	   +1.164759e-003
+1.318257e+002	   +1.060769e-003
+1.341220e+002	   +9.956759e-004
+1.364583e+002	   +9.086955e-004
+1.388353e+002	   +8.835784e-004
+1.412538e+002	   +7.330300e-004
+1.437143e+002	   +7.778393e-004
+1.462177e+002	   +7.007611e-004
+1.487647e+002	   +6.743179e-004
+1.513561e+002	   +6.726218e-004
+1.539926e+002	   +6.317851e-004
+1.566751e+002	   +4.592988e-004
+1.594043e+002	   +8.402886e-004
+1.621810e+002	   +6.920308e-004
+1.650061e+002	   +5.819154e-004
+1.678804e+002	   +6.967155e-004
+1.708048e+002	   +4.951732e-004
+1.737801e+002	   +5.455784e-004
+1.768072e+002	   +4.998103e-004
+1.798871e+002	   +5.132449e-004
+1.830206e+002	   +3.970290e-004
+1.862087e+002	   +4.348939e-004
+1.894523e+002	   +3.675411e-004
+1.927525e+002	   +4.823974e-004
+1.961101e+002	   +2.170236e-004
+1.995262e+002	   -1.232165e-005
+2.030018e+002	   -6.752094e-005
+2.065380e+002	   -7.278603e-005
+2.101358e+002	   -2.856071e-004
+2.137962e+002	   -2.287313e-004
+2.175204e+002	   -2.557043e-004
+2.213095e+002	   -3.939815e-004
+2.251645e+002	   -1.816651e-004
+2.290868e+002	   -2.380082e-004
+2.330773e+002	   -5.213304e-004
+2.371374e+002	   -6.593300e-004
+2.412682e+002	   -6.731572e-004
+2.454709e+002	   -6.258724e-004
+2.497468e+002	   -8.376113e-004
+2.540973e+002	   -8.472443e-004
+2.585235e+002	   -9.166437e-004
+2.630268e+002	   -1.017706e-003
+2.676086e+002	   -1.291681e-003
+2.722701e+002	   -1.105940e-003
+2.770129e+002	   -1.116366e-003
+2.818383e+002	   -1.234217e-003
+2.867477e+002	   -1.430800e-003
+2.917427e+002	   -1.605027e-003
+2.968247e+002	   -1.505837e-003
+3.019952e+002	   -1.279935e-003
+3.072557e+002	   -1.642597e-003
+3.126079e+002	   -1.737279e-003
+3.180534e+002	   -2.128900e-003
+3.235937e+002	   -1.978772e-003
+3.292304e+002	   -2.450553e-003
+3.349655e+002	   -2.526504e-003
+3.408003e+002	   -2.810653e-003
+3.467368e+002	   -2.795287e-003
+3.527768e+002	   -3.189484e-003
+3.589219e+002	   -3.308209e-003
+3.651741e+002	   -3.497071e-003
+3.715352e+002	   -3.622477e-003
+3.780071e+002	   -3.774363e-003
+3.845918e+002	   -3.668372e-003
+3.912911e+002	   -4.203636e-003
+3.981072e+002	   -4.174049e-003
+4.050419e+002	   -4.476285e-003
+4.120975e+002	   -4.633856e-003
+4.192760e+002	   -4.906076e-003
+4.265795e+002	   -5.269905e-003
+4.340103e+002	   -5.135915e-003
+4.415704e+002	   -5.275793e-003
+4.492623e+002	   -5.609630e-003
+4.570882e+002	   -6.286103e-003
+4.650504e+002	   -6.680968e-003
+4.731512e+002	   -6.528328e-003
+4.813932e+002	   -6.763166e-003
+4.897788e+002	   -7.127872e-003
+4.983105e+002	   -7.149816e-003
+5.069907e+002	   -7.363994e-003
+5.158221e+002	   -8.053823e-003
+5.248074e+002	   -8.311641e-003
+5.339493e+002	   -8.433521e-003
+5.432503e+002	   -8.997294e-003
+5.527134e+002	   -8.835521e-003
+5.623413e+002	   -9.588815e-003
+5.721370e+002	   -9.305796e-003
+5.821032e+002	   -9.473546e-003
+5.922431e+002	   -1.145636e-002
+6.025596e+002	   -1.074067e-002
+6.130558e+002	   -1.151250e-002
+6.237349e+002	   -1.211878e-002
+6.345999e+002	   -1.286400e-002
+6.456542e+002	   -1.280352e-002
+6.569011e+002	   -1.334267e-002
+6.683439e+002	   -1.412830e-002
+6.799860e+002	   -1.491929e-002
+6.918310e+002	   -1.571208e-002
+7.038822e+002	   -1.620658e-002
+7.161434e+002	   -1.728681e-002
+7.286182e+002	   -1.760159e-002
+7.413102e+002	   -1.856256e-002
+7.542234e+002	   -1.953460e-002
+7.673615e+002	   -2.008606e-002
+7.807285e+002	   -2.029141e-002
+7.943282e+002	   -2.147962e-002
+8.081649e+002	   -2.193454e-002
+8.222427e+002	   -2.361648e-002
+8.365656e+002	   -2.323073e-002
+8.511381e+002	   -2.442730e-002
+8.659643e+002	   -2.552073e-002
+8.810489e+002	   -2.685021e-002
+8.963962e+002	   -2.700815e-002
+9.120109e+002	   -2.813378e-002
+9.278975e+002	   -2.969548e-002
+9.440609e+002	   -3.035343e-002
+9.605058e+002	   -3.171300e-002
+9.772372e+002	   -3.384700e-002
+9.942601e+002	   -3.491518e-002
+1.011579e+003	   -3.587761e-002
+1.029201e+003	   -3.695673e-002
+1.047129e+003	   -3.861390e-002
+1.065369e+003	   -3.943672e-002
+1.083927e+003	   -4.109287e-002
+1.102808e+003	   -4.286829e-002
+1.122018e+003	   -4.363896e-002
+1.141563e+003	   -4.668905e-002
+1.161449e+003	   -4.687094e-002
+1.181680e+003	   -4.881684e-002
+1.202264e+003	   -5.069295e-002
+1.223207e+003	   -5.299523e-002
+1.244515e+003	   -5.560285e-002
+1.266193e+003	   -5.604865e-002
+1.288250e+003	   -5.902489e-002
+1.310690e+003	   -6.167397e-002
+1.333521e+003	   -6.297608e-002
+1.356750e+003	   -6.574184e-002
+1.380384e+003	   -6.784082e-002
+1.404430e+003	   -6.951205e-002
+1.428894e+003	   -7.290935e-002
+1.453784e+003	   -7.397627e-002
+1.479108e+003	   -7.756718e-002
+1.504874e+003	   -8.142288e-002
+1.531087e+003	   -8.558132e-002
+1.557758e+003	   -8.669634e-002
+1.584893e+003	   -9.136990e-002
+1.612501e+003	   -9.263190e-002
+1.640590e+003	   -9.647872e-002
+1.669168e+003	   -9.889641e-002
+1.698244e+003	   -1.036339e-001
+1.727826e+003	   -1.068512e-001
+1.757924e+003	   -1.117782e-001
+1.788546e+003	   -1.145154e-001
+1.819701e+003	   -1.187867e-001
+1.851399e+003	   -1.249514e-001
+1.883649e+003	   -1.295396e-001
+1.916461e+003	   -1.324538e-001
+1.949845e+003	   -1.372139e-001
+1.983810e+003	   -1.396731e-001
+2.018366e+003	   -1.469952e-001
+2.053525e+003	   -1.525370e-001
+2.089296e+003	   -1.569003e-001
+2.125690e+003	   -1.629960e-001
+2.162719e+003	   -1.708519e-001
+2.200392e+003	   -1.741481e-001
+2.238721e+003	   -1.782738e-001
+2.277718e+003	   -1.871442e-001
+2.317395e+003	   -1.958134e-001
+2.357762e+003	   -2.014945e-001
+2.398833e+003	   -2.089046e-001
+2.440619e+003	   -2.156756e-001
+2.483133e+003	   -2.245172e-001
+2.526388e+003	   -2.301882e-001
+2.570396e+003	   -2.380797e-001
+2.615170e+003	   -2.475317e-001
+2.660725e+003	   -2.564770e-001
+2.707073e+003	   -2.623653e-001
+2.754229e+003	   -2.716694e-001
+2.802206e+003	   -2.837304e-001
+2.851018e+003	   -2.937942e-001
+2.900681e+003	   -3.028634e-001
+2.951209e+003	   -3.179386e-001
+3.002617e+003	   -3.250574e-001
+3.054921e+003	   -3.368931e-001
+3.108136e+003	   -3.474103e-001
+3.162278e+003	   -3.594429e-001
+3.217363e+003	   -3.749192e-001
+3.273407e+003	   -3.915085e-001
+3.330428e+003	   -3.979760e-001
+3.388442e+003	   -4.175728e-001
+3.447466e+003	   -4.308666e-001
+3.507519e+003	   -4.472637e-001
+3.568617e+003	   -4.615431e-001
+3.630781e+003	   -4.762375e-001
+3.694026e+003	   -4.931454e-001
+3.758374e+003	   -5.106589e-001
+3.823843e+003	   -5.313465e-001
+3.890451e+003	   -5.555825e-001
+3.958221e+003	   -5.693650e-001
+4.027170e+003	   -5.848516e-001
+4.097321e+003	   -6.053311e-001
+4.168694e+003	   -6.252512e-001
+4.241310e+003	   -6.522712e-001
+4.315191e+003	   -6.731421e-001
+4.390359e+003	   -6.953086e-001
+4.466836e+003	   -7.304405e-001
+4.544646e+003	   -7.492573e-001
+4.623810e+003	   -7.726573e-001
+4.704354e+003	   -8.064401e-001
+4.786301e+003	   -8.350300e-001
+4.869675e+003	   -8.608395e-001
+4.954502e+003	   -8.940392e-001
+5.040806e+003	   -9.212435e-001
+5.128614e+003	   -9.615673e-001
+5.217951e+003	   -9.994739e-001
+5.308844e+003	   -1.027524e+000
+5.401321e+003	   -1.073438e+000
+5.495409e+003	   -1.106076e+000
+5.591135e+003	   -1.148049e+000
+5.688529e+003	   -1.190733e+000
+5.787620e+003	   -1.231345e+000
+5.888437e+003	   -1.268180e+000
+5.991009e+003	   -1.322400e+000
+6.095369e+003	   -1.365900e+000
+6.201546e+003	   -1.425258e+000
+6.309573e+003	   -1.473701e+000
+6.419482e+003	   -1.517976e+000
+6.531306e+003	   -1.569848e+000
+6.645077e+003	   -1.635728e+000
+6.760830e+003	   -1.704608e+000
+6.878599e+003	   -1.760276e+000
+6.998420e+003	   -1.834397e+000
+7.120328e+003	   -1.879363e+000
+7.244359e+003	   -1.962438e+000
+7.370552e+003	   -2.045875e+000
+7.498942e+003	   -2.092412e+000
+7.629569e+003	   -2.169417e+000
+7.762471e+003	   -2.254375e+000
+7.897688e+003	   -2.356545e+000
+8.035261e+003	   -2.455740e+000
+8.175230e+003	   -2.535585e+000
+8.317638e+003	   -2.619734e+000
+8.462525e+003	   -2.759209e+000
+8.609938e+003	   -2.874513e+000
+8.759917e+003	   -2.912326e+000
+8.912510e+003	   -3.039117e+000
+9.067760e+003	   -3.160364e+000
+9.225714e+003	   -3.333347e+000
+9.386420e+003	   -3.500943e+000
+9.549926e+003	   -3.564413e+000
+9.716279e+003	   -3.641964e+000
+9.885531e+003	   -3.447757e+000
+1.005773e+004	   -4.191193e+000
+1.023293e+004	   -4.103303e+000
+1.041118e+004	   -4.352356e+000
+1.059254e+004	   -4.477592e+000
+1.077705e+004	   -4.523334e+000
+1.096478e+004	   -4.894470e+000
+1.115578e+004	   -5.015806e+000
+1.135011e+004	   -5.142244e+000
+1.154782e+004	   -5.497316e+000
+1.174898e+004	   -5.696650e+000
+1.195364e+004	   -5.862718e+000
+1.216186e+004	   -6.123380e+000
+1.237371e+004	   -6.330440e+000
+1.258925e+004	   -6.664742e+000
+1.280855e+004	   -6.942379e+000
+1.303167e+004	   -7.242831e+000
+1.325867e+004	   -7.520516e+000
+1.348963e+004	   -7.878089e+000
+1.372461e+004	   -8.264973e+000
+1.396368e+004	   -8.660057e+000
+1.420692e+004	   -8.980028e+000
+1.445440e+004	   -9.443807e+000
+1.470618e+004	   -9.864745e+000
+1.496236e+004	   -1.034304e+001
+1.522299e+004	   -1.090082e+001
+1.548817e+004	   -1.143337e+001
+1.575796e+004	   -1.202895e+001
+1.603245e+004	   -1.271608e+001
+1.631173e+004	   -1.341400e+001
+1.659587e+004	   -1.424570e+001
+1.688496e+004	   -1.496308e+001
+1.717908e+004	   -1.599779e+001
+1.747833e+004	   -1.703755e+001
+1.778279e+004	   -1.823276e+001
+1.809256e+004	   -1.963798e+001
+1.840772e+004	   -2.131674e+001
+1.872837e+004	   -2.338217e+001
+1.905461e+004	   -2.595231e+001
+1.938653e+004	   -2.996165e+001
+1.972423e+004	   -3.781607e+001
+2.006781e+004	   -5.002949e+001
+2.041738e+004	   -3.365347e+001
+2.077304e+004	   -2.868078e+001
+2.113489e+004	   -2.538963e+001
+2.150305e+004	   -2.310960e+001
+2.187762e+004	   -2.156945e+001
+2.225871e+004	   -2.013813e+001
+2.264644e+004	   -1.888356e+001
+2.304093e+004	   -1.790649e+001
+2.344229e+004	   -1.707612e+001
+2.385064e+004	   -1.641265e+001
+2.426610e+004	   -1.574241e+001
+2.468880e+004	   -1.523205e+001
+2.511887e+004	   -1.478428e+001
+2.555642e+004	   -1.439091e+001
+2.600160e+004	   -1.404804e+001
+2.645453e+004	   -1.380659e+001
+2.691535e+004	   -1.363216e+001
+2.738420e+004	   -1.347187e+001
+2.786121e+004	   -1.333340e+001
+2.834654e+004	   -1.331370e+001
+2.884031e+004	   -1.324950e+001
+2.934270e+004	   -1.324387e+001
+2.985383e+004	   -1.299306e+001
+3.037386e+004	   -1.382105e+001
+3.090296e+004	   -1.379889e+001
+3.144126e+004	   -1.413959e+001
+3.198895e+004	   -1.446150e+001
+3.254618e+004	   -1.489866e+001
+3.311311e+004	   -1.538842e+001
+3.368992e+004	   -1.610632e+001
+3.427678e+004	   -1.681368e+001
+3.487386e+004	   -1.763997e+001
+3.548134e+004	   -1.861242e+001
+3.609940e+004	   -1.990255e+001
+3.672823e+004	   -2.142606e+001
+3.736801e+004	   -2.336384e+001
+3.801894e+004	   -2.582562e+001
+3.868121e+004	   -2.956488e+001
+3.935501e+004	   -3.585946e+001
+4.004055e+004	   -5.583760e+001
+4.073803e+004	   -3.488099e+001
+4.144766e+004	   -2.920398e+001
+4.216965e+004	   -2.593432e+001
+4.290422e+004	   -2.364068e+001
+4.365158e+004	   -2.205593e+001
+4.441196e+004	   -2.081871e+001
+4.518559e+004	   -1.987100e+001
+4.597270e+004	   -1.903447e+001
+4.677352e+004	   -1.854426e+001
+4.758828e+004	   -1.812049e+001
+4.841724e+004	   -1.785788e+001
+4.926063e+004	   -1.789278e+001
+5.011872e+004	   -1.760158e+001
+5.099176e+004	   -1.823840e+001
+5.188000e+004	   -1.864481e+001
+5.278372e+004	   -1.929785e+001
+5.370318e+004	   -2.015579e+001
+5.463866e+004	   -2.128422e+001
+5.559043e+004	   -2.277487e+001
+5.655878e+004	   -2.480711e+001
+5.754399e+004	   -2.768204e+001
+5.854638e+004	   -3.220384e+001
+5.956621e+004	   -4.277318e+001
+6.060382e+004	   -4.026596e+001
+6.165950e+004	   -3.155736e+001
+6.273357e+004	   -2.768620e+001
+6.382635e+004	   -2.512988e+001
+6.493816e+004	   -2.335873e+001
+6.606934e+004	   -2.218645e+001
+6.722023e+004	   -2.142614e+001
+6.839116e+004	   -2.089887e+001
+6.958249e+004	   -2.083863e+001
+7.079458e+004	   -2.104100e+001
+7.202777e+004	   -2.164206e+001
+7.328245e+004	   -2.256246e+001
+7.455898e+004	   -2.396564e+001
+7.585776e+004	   -2.601216e+001
+7.717915e+004	   -2.910911e+001
+7.852356e+004	   -3.481719e+001
+7.989139e+004	   -5.543150e+001
+8.128305e+004	   -3.628465e+001
+8.269895e+004	   -3.020011e+001
+8.413952e+004	   -2.703629e+001
+8.560517e+004	   -2.505770e+001
+8.709636e+004	   -2.380674e+001
+8.861352e+004	   -2.321342e+001
+9.015712e+004	   -2.306056e+001
+9.172759e+004	   -2.371319e+001
+9.332543e+004	   -2.483360e+001
+9.495110e+004	   -2.659960e+001
+9.660509e+004	   -2.975389e+001
+9.828789e+004	   -3.541748e+001
+1.000000e+005	   -7.389574e+001
