+1.000000e+002	   +5.350247e-003
+1.017419e+002	   +5.213994e-003
+1.035142e+002	   +5.228892e-003
+1.053174e+002	   +5.220964e-003
+1.071519e+002	   +5.366320e-003
+1.090184e+002	   +5.389258e-003
+1.109175e+002	   +5.281089e-003
+1.128496e+002	   +5.303882e-003
+1.148154e+002	   +5.300730e-003
+1.168154e+002	   +5.343347e-003
+1.188502e+002	   +5.239806e-003
+1.209205e+002	   +5.284916e-003
+1.230269e+002	   +5.275902e-003
+1.251699e+002	   +5.110882e-003
+1.273503e+002	   +5.178299e-003
+1.295687e+002	   +5.116360e-003
+1.318257e+002	   +5.304510e-003
+1.341220e+002	   +5.232068e-003
+1.364583e+002	   +5.249005e-003
+1.388353e+002	   +5.274198e-003
+1.412538e+002	   +5.308695e-003
+1.437143e+002	   +5.322665e-003
+1.462177e+002	   +5.298132e-003
+1.487647e+002	   +5.276676e-003
+1.513561e+002	   +5.247362e-003
+1.539926e+002	   +5.383890e-003
+1.566751e+002	   +5.405788e-003
+1.594043e+002	   +5.314204e-003
+1.621810e+002	   +5.392126e-003
+1.650061e+002	   +5.316699e-003
+1.678804e+002	   +5.322478e-003
+1.708048e+002	   +5.385734e-003
+1.737801e+002	   +5.429761e-003
+1.768072e+002	   +5.445200e-003
+1.798871e+002	   +5.333499e-003
+1.830206e+002	   +5.335741e-003
+1.862087e+002	   +5.247693e-003
+1.894523e+002	   +5.408681e-003
+1.927525e+002	   +5.176894e-003
+1.961101e+002	   +5.253499e-003
+1.995262e+002	   +5.421289e-003
+2.030018e+002	   +5.386242e-003
+2.065380e+002	   +5.232063e-003
+2.101358e+002	   +5.419495e-003
+2.137962e+002	   +5.387927e-003
+2.175204e+002	   +5.343415e-003
+2.213095e+002	   +5.200282e-003
+2.251645e+002	   +5.322993e-003
+2.290868e+002	   +5.428699e-003
+2.330773e+002	   +5.309977e-003
+2.371374e+002	   +5.325797e-003
+2.412682e+002	   +5.348921e-003
+2.454709e+002	   +5.161004e-003
+2.497468e+002	   +5.215830e-003
+2.540973e+002	   +5.213116e-003
+2.585235e+002	   +5.313854e-003
+2.630268e+002	   +5.320375e-003
+2.676086e+002	   +5.246347e-003
+2.722701e+002	   +5.317240e-003
+2.770129e+002	   +5.380270e-003
+2.818383e+002	   +5.352336e-003
+2.867477e+002	   +5.184201e-003
+2.917427e+002	   +5.393621e-003
+2.968247e+002	   +5.412144e-003
+3.019952e+002	   +5.250191e-003
+3.072557e+002	   +5.428979e-003
+3.126079e+002	   +5.407877e-003
+3.180534e+002	   +5.377688e-003
+3.235937e+002	   +5.303096e-003
+3.292304e+002	   +5.261312e-003
+3.349655e+002	   +5.290974e-003
+3.408003e+002	   +5.229220e-003
+3.467368e+002	   +5.454604e-003
+3.527768e+002	   +5.492026e-003
+3.589219e+002	   +5.502985e-003
+3.651741e+002	   +5.294863e-003
+3.715352e+002	   +5.348335e-003
+3.780071e+002	   +5.307807e-003
+3.845918e+002	   +5.270761e-003
+3.912911e+002	   +5.305662e-003
+3.981072e+002	   +5.324651e-003
+4.050419e+002	   +5.264758e-003
+4.120975e+002	   +5.122315e-003
+4.192760e+002	   +5.197573e-003
+4.265795e+002	   +5.190181e-003
+4.340103e+002	   +5.030086e-003
+4.415704e+002	   +5.271837e-003
+4.492623e+002	   +5.084478e-003
+4.570882e+002	   +5.073774e-003
+4.650504e+002	   +5.211451e-003
+4.731512e+002	   +5.048410e-003
+4.813932e+002	   +5.139111e-003
+4.897788e+002	   +5.199769e-003
+4.983105e+002	   +5.050852e-003
+5.069907e+002	   +5.031530e-003
+5.158221e+002	   +4.967710e-003
+5.248074e+002	   +5.129613e-003
+5.339493e+002	   +5.052262e-003
+5.432503e+002	   +5.054640e-003
+5.527134e+002	   +5.169714e-003
+5.623413e+002	   +5.024448e-003
+5.721370e+002	   +5.149520e-003
+5.821032e+002	   +5.339944e-003
+5.922431e+002	   +5.085414e-003
+6.025596e+002	   +4.967642e-003
+6.130558e+002	   +5.168329e-003
+6.237349e+002	   +5.060760e-003
+6.345999e+002	   +5.148612e-003
+6.456542e+002	   +5.033927e-003
+6.569011e+002	   +4.863686e-003
+6.683439e+002	   +5.054805e-003
+6.799860e+002	   +4.857776e-003
+6.918310e+002	   +4.990382e-003
+7.038822e+002	   +4.884284e-003
+7.161434e+002	   +4.689678e-003
+7.286182e+002	   +4.714677e-003
+7.413102e+002	   +4.922600e-003
+7.542234e+002	   +4.827658e-003
+7.673615e+002	   +4.663935e-003
+7.807285e+002	   +4.582326e-003
+7.943282e+002	   +4.782860e-003
+8.081649e+002	   +4.761726e-003
+8.222427e+002	   +4.708910e-003
+8.365656e+002	   +4.435902e-003
+8.511381e+002	   +4.581211e-003
+8.659643e+002	   +4.688436e-003
+8.810489e+002	   +4.467123e-003
+8.963962e+002	   +4.650030e-003
+9.120109e+002	   +4.275575e-003
+9.278975e+002	   +4.417118e-003
+9.440609e+002	   +4.447015e-003
+9.605058e+002	   +4.491079e-003
+9.772372e+002	   +4.258319e-003
+9.942601e+002	   +4.176578e-003
+1.011579e+003	   +3.990475e-003
+1.029201e+003	   +4.104045e-003
+1.047129e+003	   +4.192865e-003
+1.065369e+003	   +4.011841e-003
+1.083927e+003	   +3.994319e-003
+1.102808e+003	   +4.073559e-003
+1.122018e+003	   +3.387379e-003
+1.141563e+003	   +4.275185e-003
+1.161449e+003	   +3.670522e-003
+1.181680e+003	   +3.829461e-003
+1.202264e+003	   +3.612740e-003
+1.223207e+003	   +3.450630e-003
+1.244515e+003	   +3.004856e-003
+1.266193e+003	   +3.325364e-003
+1.288250e+003	   +3.238956e-003
+1.310690e+003	   +3.240742e-003
+1.333521e+003	   +3.058039e-003
+1.356750e+003	   +2.886293e-003
+1.380384e+003	   +2.883742e-003
+1.404430e+003	   +3.040520e-003
+1.428894e+003	   +2.557169e-003
+1.453784e+003	   +2.689601e-003
+1.479108e+003	   +2.340098e-003
+1.504874e+003	   +2.184282e-003
+1.531087e+003	   +2.302791e-003
+1.557758e+003	   +2.193904e-003
+1.584893e+003	   +1.565822e-003
+1.612501e+003	   +1.451927e-003
+1.640590e+003	   +1.484620e-003
+1.669168e+003	   +8.308743e-004
+1.698244e+003	   +8.735221e-004
+1.727826e+003	   +8.034135e-004
+1.757924e+003	   +2.592003e-004
+1.788546e+003	   +4.628734e-004
+1.819701e+003	   -1.460963e-004
+1.851399e+003	   -3.841326e-004
+1.883649e+003	   -9.867999e-004
+1.916461e+003	   -1.228074e-003
+1.949845e+003	   -9.945125e-004
+1.983810e+003	   -8.926283e-004
+2.018366e+003	   -2.480758e-003
+2.053525e+003	   -1.811672e-003
+2.089296e+003	   -2.680607e-003
+2.125690e+003	   -2.211045e-003
+2.162719e+003	   -2.527522e-003
+2.200392e+003	   -2.722319e-003
+2.238721e+003	   -3.477850e-003
+2.277718e+003	   -3.388831e-003
+2.317395e+003	   -3.522713e-003
+2.357762e+003	   -3.616980e-003
+2.398833e+003	   -4.274067e-003
+2.440619e+003	   -4.554207e-003
+2.483133e+003	   -4.972125e-003
+2.526388e+003	   -4.933164e-003
+2.570396e+003	   -5.659872e-003
+2.615170e+003	   -5.597541e-003
+2.660725e+003	   -5.676514e-003
+2.707073e+003	   -6.192005e-003
+2.754229e+003	   -6.191887e-003
+2.802206e+003	   -6.853194e-003
+2.851018e+003	   -6.818536e-003
+2.900681e+003	   -7.783900e-003
+2.951209e+003	   -7.886476e-003
+3.002617e+003	   -7.414293e-003
+3.054921e+003	   -8.049097e-003
+3.108136e+003	   -9.540745e-003
+3.162278e+003	   -9.269321e-003
+3.217363e+003	   -9.822111e-003
+3.273407e+003	   -1.119557e-002
+3.330428e+003	   -1.156353e-002
+3.388442e+003	   -1.205610e-002
+3.447466e+003	   -1.198583e-002
+3.507519e+003	   -1.149253e-002
+3.568617e+003	   -1.274562e-002
+3.630781e+003	   -1.498593e-002
+3.694026e+003	   -1.515830e-002
+3.758374e+003	   -1.559522e-002
+3.823843e+003	   -1.634762e-002
+3.890451e+003	   -1.708112e-002
+3.958221e+003	   -1.731836e-002
+4.027170e+003	   -1.827668e-002
+4.097321e+003	   -1.911829e-002
+4.168694e+003	   -2.015837e-002
+4.241310e+003	   -2.074123e-002
+4.315191e+003	   -2.192541e-002
+4.390359e+003	   -2.233061e-002
+4.466836e+003	   -2.382005e-002
+4.544646e+003	   -2.570841e-002
+4.623810e+003	   -2.622795e-002
+4.704354e+003	   -2.831353e-002
+4.786301e+003	   -2.800711e-002
+4.869675e+003	   -2.869140e-002
+4.954502e+003	   -3.024098e-002
+5.040806e+003	   -3.112153e-002
+5.128614e+003	   -3.359695e-002
+5.217951e+003	   -3.293267e-002
+5.308844e+003	   -3.457619e-002
+5.401321e+003	   -3.766740e-002
+5.495409e+003	   -3.990541e-002
+5.591135e+003	   -3.951028e-002
+5.688529e+003	   -4.420745e-002
+5.787620e+003	   -4.553910e-002
+5.888437e+003	   -4.522068e-002
+5.991009e+003	   -4.744396e-002
+6.095369e+003	   -4.685237e-002
+6.201546e+003	   -5.100746e-002
+6.309573e+003	   -5.369555e-002
+6.419482e+003	   -5.629522e-002
+6.531306e+003	   -5.556171e-002
+6.645077e+003	   -5.835811e-002
+6.760830e+003	   -6.066328e-002
+6.878599e+003	   -6.383679e-002
+6.998420e+003	   -6.487890e-002
+7.120328e+003	   -6.669336e-002
+7.244359e+003	   -7.000346e-002
+7.370552e+003	   -7.356071e-002
+7.498942e+003	   -7.743941e-002
+7.629569e+003	   -7.809403e-002
+7.762471e+003	   -8.199906e-002
+7.897688e+003	   -8.507445e-002
+8.035261e+003	   -9.114633e-002
+8.175230e+003	   -9.075370e-002
+8.317638e+003	   -9.575322e-002
+8.462525e+003	   -9.762242e-002
+8.609938e+003	   -1.018291e-001
+8.759917e+003	   -1.069045e-001
+8.912510e+003	   -1.093858e-001
+9.067760e+003	   -1.135835e-001
+9.225714e+003	   -1.171125e-001
+9.386420e+003	   -1.220781e-001
+9.549926e+003	   -1.270874e-001
+9.716279e+003	   -1.306694e-001
+9.885531e+003	   -1.349948e-001
+1.005773e+004	   -1.401908e-001
+1.023293e+004	   -1.454141e-001
+1.041118e+004	   -1.499717e-001
+1.059254e+004	   -1.576360e-001
+1.077705e+004	   -1.636517e-001
+1.096478e+004	   -1.692929e-001
+1.115578e+004	   -1.758280e-001
+1.135011e+004	   -1.803329e-001
+1.154782e+004	   -1.860954e-001
+1.174898e+004	   -1.933989e-001
+1.195364e+004	   -2.027773e-001
+1.216186e+004	   -2.104829e-001
+1.237371e+004	   -2.143536e-001
+1.258925e+004	   -2.247988e-001
+1.280855e+004	   -2.311370e-001
+1.303167e+004	   -2.383505e-001
+1.325867e+004	   -2.453119e-001
+1.348963e+004	   -2.600397e-001
+1.372461e+004	   -2.660730e-001
+1.396368e+004	   -2.740350e-001
+1.420692e+004	   -2.882525e-001
+1.445440e+004	   -2.955298e-001
+1.470618e+004	   -3.012159e-001
+1.496236e+004	   -3.205974e-001
+1.522299e+004	   -3.297298e-001
+1.548817e+004	   -3.418868e-001
+1.575796e+004	   -3.562855e-001
+1.603245e+004	   -3.686158e-001
+1.631173e+004	   -3.783799e-001
+1.659587e+004	   -3.913867e-001
+1.688496e+004	   -4.066291e-001
+1.717908e+004	   -4.223177e-001
+1.747833e+004	   -4.389363e-001
+1.778279e+004	   -4.479260e-001
+1.809256e+004	   -4.686984e-001
+1.840772e+004	   -4.849195e-001
+1.872837e+004	   -5.033091e-001
+1.905461e+004	   -5.214881e-001
+1.938653e+004	   -5.395778e-001
+1.972423e+004	   -5.609510e-001
+2.006781e+004	   -5.807420e-001
+2.041738e+004	   -6.005178e-001
+2.077304e+004	   -6.204220e-001
+2.113489e+004	   -6.444389e-001
+2.150305e+004	   -6.719422e-001
+2.187762e+004	   -6.905504e-001
+2.225871e+004	   -7.145554e-001
+2.264644e+004	   -7.449086e-001
+2.304093e+004	   -7.699988e-001
+2.344229e+004	   -7.911211e-001
+2.385064e+004	   -8.256477e-001
+2.426610e+004	   -8.547474e-001
+2.468880e+004	   -8.870395e-001
+2.511887e+004	   -9.210073e-001
+2.555642e+004	   -9.533790e-001
+2.600160e+004	   -9.915332e-001
+2.645453e+004	   -1.030373e+000
+2.691535e+004	   -1.063714e+000
+2.738420e+004	   -1.098106e+000
+2.786121e+004	   -1.140075e+000
+2.834654e+004	   -1.185340e+000
+2.884031e+004	   -1.229739e+000
+2.934270e+004	   -1.273623e+000
+2.985383e+004	   -1.315542e+000
+3.037386e+004	   -1.363155e+000
+3.090296e+004	   -1.420485e+000
+3.144126e+004	   -1.468127e+000
+3.198895e+004	   -1.523064e+000
+3.254618e+004	   -1.581661e+000
+3.311311e+004	   -1.641984e+000
+3.368992e+004	   -1.705570e+000
+3.427678e+004	   -1.762367e+000
+3.487386e+004	   -1.829372e+000
+3.548134e+004	   -1.895676e+000
+3.609940e+004	   -1.966266e+000
+3.672823e+004	   -2.045776e+000
+3.736801e+004	   -2.110742e+000
+3.801894e+004	   -2.199494e+000
+3.868121e+004	   -2.280718e+000
+3.935501e+004	   -2.365191e+000
+4.004055e+004	   -2.464406e+000
+4.073803e+004	   -2.554089e+000
+4.144766e+004	   -2.635767e+000
+4.216965e+004	   -2.750559e+000
+4.290422e+004	   -2.847967e+000
+4.365158e+004	   -2.947718e+000
+4.441196e+004	   -3.065567e+000
+4.518559e+004	   -3.177004e+000
+4.597270e+004	   -3.305022e+000
+4.677352e+004	   -3.443300e+000
+4.758828e+004	   -3.581133e+000
+4.841724e+004	   -3.700842e+000
+4.926063e+004	   -3.815897e+000
+5.011872e+004	   -4.488729e+000
+5.099176e+004	   -4.157202e+000
+5.188000e+004	   -4.319696e+000
+5.278372e+004	   -4.487267e+000
+5.370318e+004	   -4.644938e+000
+5.463866e+004	   -4.845773e+000
+5.559043e+004	   -5.051806e+000
+5.655878e+004	   -5.251965e+000
+5.754399e+004	   -5.465503e+000
+5.854638e+004	   -5.684408e+000
+5.956621e+004	   -5.917065e+000
+6.060382e+004	   -6.162541e+000
+6.165950e+004	   -6.432182e+000
+6.273357e+004	   -6.683261e+000
+6.382635e+004	   -6.970795e+000
+6.493816e+004	   -7.270210e+000
+6.606934e+004	   -7.579284e+000
+6.722023e+004	   -7.936234e+000
+6.839116e+004	   -8.288079e+000
+6.958249e+004	   -8.653131e+000
+7.079458e+004	   -9.043930e+000
+7.202777e+004	   -9.489477e+000
+7.328245e+004	   -9.916320e+000
+7.455898e+004	   -1.040346e+001
+7.585776e+004	   -1.092850e+001
+7.717915e+004	   -1.149170e+001
+7.852356e+004	   -1.207125e+001
+7.989139e+004	   -1.271879e+001
+8.128305e+004	   -1.343617e+001
+8.269895e+004	   -1.418802e+001
+8.413952e+004	   -1.505568e+001
+8.560517e+004	   -1.597215e+001
+8.709636e+004	   -1.701526e+001
+8.861352e+004	   -1.820185e+001
+9.015712e+004	   -1.955266e+001
+9.172759e+004	   -2.120382e+001
+9.332543e+004	   -2.316579e+001
+9.495110e+004	   -2.569892e+001
+9.660509e+004	   -2.930934e+001
+9.828789e+004	   -3.550431e+001
+1.000000e+005	   -7.880698e+001
